Packet: type=Req  len=363      enc=None sess=00000000-0000-0000-0000-000000000000
TLV l=12       t=TLV_TYPE_COMMAND_ID        v=CORE_NEGOTIATE_TLV_ENCRYPTION
TLV l=41       t=TLV_TYPE_REQUEST_ID        v=b'20785548998507895601672178421212\x00'
TLV l=302      t=TLV_TYPE_RSA_PUB_KEY       v=b'0\x82\x01"0\r\x06\t*\x86H\x86\xf7\r\x01\x01\x01\x05\x00\x03\x82\x01\x0f\x000\x82\x01\n\x02\x82\x01\x01\x00\xc0\x94S\xbf3\xbe?\xc1\x07\x1e\xa4\x90F\xea,\x95\''
Packet: type=Resp len=373      enc=None sess=00000000-0000-0000-0000-000000000000
TLV l=24       t=TLV_TYPE_UUID              v=b'\xd2\x99\x93k\xe4W`\x99f `"\x04\x0fx\xaa'
TLV l=12       t=TLV_TYPE_COMMAND_ID        v=CORE_NEGOTIATE_TLV_ENCRYPTION
TLV l=41       t=TLV_TYPE_REQUEST_ID        v=b'20785548998507895601672178421212\x00'
TLV l=12       t=TLV_TYPE_RESULT            v=b'\x00\x00\x00\x00'
TLV l=12       t=TLV_TYPE_SYM_KEY_TYPE      v=b'\x00\x00\x00\x01'
TLV l=264      t=TLV_TYPE_ENC_SYM_KEY       v=b'-I\x1d\xc1\xa3YLu\xa9\x99/\x96>\xe9\x1f\x9c\xf9g~\x0fH8\xee\xe1y\xf1\xb8\x10\x86\x8av\xf7[\xd2\xdeA@\xbch\xac\x0enh.\x8f\xae=\xed\xf6\xcb'
Packet: type=Req  len=88       enc=AES256 sess=00000000-0000-0000-0000-000000000000
TLV l=12       t=TLV_TYPE_COMMAND_ID        v=CORE_MACHINE_ID
TLV l=41       t=TLV_TYPE_REQUEST_ID        v=b'02317692758618192060783778390014\x00'
Packet: type=Resp len=168      enc=AES256 sess=00000000-0000-0000-0000-000000000000
TLV l=24       t=TLV_TYPE_UUID              v=b'\xd2\x99\x93k\xe4W`\x99f `"\x04\x0fx\xaa'
TLV l=12       t=TLV_TYPE_COMMAND_ID        v=CORE_MACHINE_ID
TLV l=41       t=TLV_TYPE_REQUEST_ID        v=b'02317692758618192060783778390014\x00'
TLV l=12       t=TLV_TYPE_RESULT            v=b'\x00\x00\x00\x00'
TLV l=54       t=TLV_TYPE_MACHINE_ID        v=b'10.10.13.37:b88b42ad757245828e688fdbfa4824f8\n\x00'
TLV l=1        t=TLV_TYPE_ANY               v=b''
Packet: type=Req  len=104      enc=AES256 sess=00000000-0000-0000-0000-000000000000
TLV l=12       t=TLV_TYPE_COMMAND_ID        v=CORE_SET_SESSION_GUID
TLV l=41       t=TLV_TYPE_REQUEST_ID        v=b'73950995467909189710546901860707\x00'
TLV l=24       t=TLV_TYPE_SESSION_GUID      v=b'k/A\xaf\xebtEO\x96\x06w\xb7\x03\xda\xb2\x97'
Packet: type=Resp len=120      enc=AES256 sess=6b2f41af-eb74-454f-9606-77b703dab297
TLV l=24       t=TLV_TYPE_UUID              v=b'\xd2\x99\x93k\xe4W`\x99f `"\x04\x0fx\xaa'
TLV l=12       t=TLV_TYPE_COMMAND_ID        v=CORE_SET_SESSION_GUID
TLV l=41       t=TLV_TYPE_REQUEST_ID        v=b'73950995467909189710546901860707\x00'
TLV l=12       t=TLV_TYPE_RESULT            v=b'\x00\x00\x00\x00'
Packet: type=Req  len=104      enc=AES256 sess=6b2f41af-eb74-454f-9606-77b703dab297
TLV l=12       t=TLV_TYPE_COMMAND_ID        v=CORE_ENUMEXTCMD
TLV l=41       t=TLV_TYPE_REQUEST_ID        v=b'74937933913022307970867018990238\x00'
TLV l=12       t=TLV_TYPE_UINT              v=b'\x00\x00\x03\xe8'
TLV l=12       t=TLV_TYPE_LENGTH            v=b'\x00\x00\x03\xe8'
Packet: type=Resp len=648      enc=AES256 sess=6b2f41af-eb74-454f-9606-77b703dab297
TLV l=24       t=TLV_TYPE_UUID              v=b'\xd2\x99\x93k\xe4W`\x99f `"\x04\x0fx\xaa'
TLV l=12       t=TLV_TYPE_COMMAND_ID        v=CORE_ENUMEXTCMD
TLV l=41       t=TLV_TYPE_REQUEST_ID        v=b'74937933913022307970867018990238\x00'
TLV l=12       t=TLV_TYPE_RESULT            v=b'\x00\x00\x00\x00'
TLV l=12       t=TLV_TYPE_UINT              v=b'\x00\x00\x03\xe9'
TLV l=12       t=TLV_TYPE_UINT              v=b'\x00\x00\x03\xec'
TLV l=12       t=TLV_TYPE_UINT              v=b'\x00\x00\x03\xee'
TLV l=12       t=TLV_TYPE_UINT              v=b'\x00\x00\x03\xef'
TLV l=12       t=TLV_TYPE_UINT              v=b'\x00\x00\x03\xed'
TLV l=12       t=TLV_TYPE_UINT              v=b'\x00\x00\x03\xea'
TLV l=12       t=TLV_TYPE_UINT              v=b'\x00\x00\x03\xf0'
TLV l=12       t=TLV_TYPE_UINT              v=b'\x00\x00\x03\xf3'
TLV l=12       t=TLV_TYPE_UINT              v=b'\x00\x00\x03\xeb'
TLV l=12       t=TLV_TYPE_UINT              v=b'\x00\x00\x03\xf1'
TLV l=12       t=TLV_TYPE_UINT              v=b'\x00\x00\x03\xf6'
TLV l=12       t=TLV_TYPE_UINT              v=b'\x00\x00\x03\xf8'
TLV l=12       t=TLV_TYPE_UINT              v=b'\x00\x00\x03\xf2'
TLV l=12       t=TLV_TYPE_UINT              v=b'\x00\x00\x03\xf7'
TLV l=12       t=TLV_TYPE_UINT              v=b'\x00\x00\x04\x02'
TLV l=12       t=TLV_TYPE_UINT              v=b'\x00\x00\x03\xfb'
TLV l=12       t=TLV_TYPE_UINT              v=b'\x00\x00\x03\xfe'
TLV l=12       t=TLV_TYPE_UINT              v=b'\x00\x00\x03\xf9'
TLV l=12       t=TLV_TYPE_UINT              v=b'\x00\x00\x03\xff'
TLV l=12       t=TLV_TYPE_UINT              v=b'\x00\x00\x03\xfa'
TLV l=12       t=TLV_TYPE_UINT              v=b'\x00\x00\x03\xfd'
TLV l=12       t=TLV_TYPE_UINT              v=b'\x00\x00\x03\xfc'
TLV l=12       t=TLV_TYPE_UINT              v=b'\x00\x00\x04\x00'
TLV l=12       t=TLV_TYPE_UINT              v=b'\x00\x00\x04\x01'
TLV l=12       t=TLV_TYPE_UINT              v=b'\x00\x00\x04\x1c'
TLV l=12       t=TLV_TYPE_UINT              v=b'\x00\x00\x04\x1f'
TLV l=12       t=TLV_TYPE_UINT              v=b'\x00\x00\x04#'
TLV l=12       t=TLV_TYPE_UINT              v=b'\x00\x00\x04 '
TLV l=12       t=TLV_TYPE_UINT              v=b'\x00\x00\x04/'
TLV l=12       t=TLV_TYPE_UINT              v=b'\x00\x00\x04+'
TLV l=12       t=TLV_TYPE_UINT              v=b'\x00\x00\x04,'
TLV l=12       t=TLV_TYPE_UINT              v=b'\x00\x00\x04-'
TLV l=12       t=TLV_TYPE_UINT              v=b'\x00\x00\x045'
TLV l=12       t=TLV_TYPE_UINT              v=b'\x00\x00\x04/'
TLV l=12       t=TLV_TYPE_UINT              v=b'\x00\x00\x040'
TLV l=12       t=TLV_TYPE_UINT              v=b'\x00\x00\x04.'
TLV l=12       t=TLV_TYPE_UINT              v=b'\x00\x00\x04G'
TLV l=12       t=TLV_TYPE_UINT              v=b'\x00\x00\x04X'
TLV l=12       t=TLV_TYPE_UINT              v=b'\x00\x00\x04Y'
TLV l=12       t=TLV_TYPE_UINT              v=b'\x00\x00\x04Z'
TLV l=12       t=TLV_TYPE_UINT              v=b'\x00\x00\x04W'
TLV l=12       t=TLV_TYPE_UINT              v=b'\x00\x00\x04]'
TLV l=12       t=TLV_TYPE_UINT              v=b'\x00\x00\x04['
TLV l=12       t=TLV_TYPE_UINT              v=b'\x00\x00\x04\\'
Packet: type=Req  len=88       enc=AES256 sess=6b2f41af-eb74-454f-9606-77b703dab297
TLV l=12       t=TLV_TYPE_COMMAND_ID        v=STDAPI_FS_GETWD
TLV l=41       t=TLV_TYPE_REQUEST_ID        v=b'23158475966597008149773983918783\x00'
Packet: type=Resp len=136      enc=AES256 sess=6b2f41af-eb74-454f-9606-77b703dab297
TLV l=24       t=TLV_TYPE_UUID              v=b'\xd2\x99\x93k\xe4W`\x99f `"\x04\x0fx\xaa'
TLV l=12       t=TLV_TYPE_COMMAND_ID        v=STDAPI_FS_GETWD
TLV l=41       t=TLV_TYPE_REQUEST_ID        v=b'23158475966597008149773983918783\x00'
TLV l=12       t=TLV_TYPE_RESULT            v=b'\x00\x00\x00\x00'
TLV l=17       t=TLV_TYPE_DIRECTORY_PATH    v=b'/dev/shm\x00'
Packet: type=Req  len=88       enc=AES256 sess=6b2f41af-eb74-454f-9606-77b703dab297
TLV l=12       t=TLV_TYPE_COMMAND_ID        v=STDAPI_SYS_CONFIG_GETUID
TLV l=41       t=TLV_TYPE_REQUEST_ID        v=b'50754330642773297958262819401791\x00'
Packet: type=Resp len=184      enc=AES256 sess=6b2f41af-eb74-454f-9606-77b703dab297
TLV l=24       t=TLV_TYPE_UUID              v=b'\xd2\x99\x93k\xe4W`\x99f `"\x04\x0fx\xaa'
TLV l=12       t=TLV_TYPE_COMMAND_ID        v=STDAPI_SYS_CONFIG_GETUID
TLV l=41       t=TLV_TYPE_REQUEST_ID        v=b'50754330642773297958262819401791\x00'
TLV l=12       t=TLV_TYPE_RESULT            v=b'\x00\x00\x00\x00'
TLV l=55       t=TLV_TYPE_USER_NAME         v=b'root @ response (uid=0, gid=0, euid=0, egid=0)\x00'
Packet: type=Req  len=88       enc=AES256 sess=6b2f41af-eb74-454f-9606-77b703dab297
TLV l=12       t=TLV_TYPE_COMMAND_ID        v=STDAPI_SYS_CONFIG_SYSINFO
TLV l=41       t=TLV_TYPE_REQUEST_ID        v=b'59532656985570336815215694575379\x00'
Packet: type=Resp len=232      enc=AES256 sess=6b2f41af-eb74-454f-9606-77b703dab297
TLV l=24       t=TLV_TYPE_UUID              v=b'\xd2\x99\x93k\xe4W`\x99f `"\x04\x0fx\xaa'
TLV l=12       t=TLV_TYPE_COMMAND_ID        v=STDAPI_SYS_CONFIG_SYSINFO
TLV l=41       t=TLV_TYPE_REQUEST_ID        v=b'59532656985570336815215694575379\x00'
TLV l=12       t=TLV_TYPE_RESULT            v=b'\x00\x00\x00\x00'
TLV l=20       t=TLV_TYPE_COMPUTER_NAME     v=b'10.10.13.37\x00'
TLV l=47       t=TLV_TYPE_OS_NAME           v=b'Ubuntu 20.04 (Linux 5.4.0-100-generic)\x00'
TLV l=15       t=TLV_TYPE_ARCHITECTURE      v=b'x86_64\x00'
TLV l=26       t=TLV_TYPE_BUILD_TUPLE       v=b'x86_64-linux-musl\x00'
Packet: type=Req  len=88       enc=AES256 sess=6b2f41af-eb74-454f-9606-77b703dab297
TLV l=12       t=TLV_TYPE_COMMAND_ID        v=STDAPI_NET_CONFIG_GET_INTERFACES
TLV l=41       t=TLV_TYPE_REQUEST_ID        v=b'82769033429395304485723723894317\x00'
Packet: type=Resp len=2008     enc=AES256 sess=6b2f41af-eb74-454f-9606-77b703dab297
TLV l=24       t=TLV_TYPE_UUID              v=b'\xd2\x99\x93k\xe4W`\x99f `"\x04\x0fx\xaa'
TLV l=12       t=TLV_TYPE_COMMAND_ID        v=STDAPI_NET_CONFIG_GET_INTERFACES
TLV l=41       t=TLV_TYPE_REQUEST_ID        v=b'82769033429395304485723723894317\x00'
TLV l=12       t=TLV_TYPE_RESULT            v=b'\x00\x00\x00\x00'
TLV l=185      t=TLV_TYPE_NETWORK_INTERFACE v=b'\x00\x00\x00\x18\x00\x01\x05\x98br-0b094b9bc2bc\x00\x00\x00\x00\x0c\x00\x02\x05z\x00\x00\x05\xdc\x00\x00\x00\x0c\x00\x02\x05|\x00\x00\x00\x05\x00\x00'
TLV l=97       t=TLV_TYPE_NETWORK_INTERFACE v=b'\x00\x00\x00\x14\x00\x01\x05\x98vetha8e60dd\x00\x00\x00\x00\x0c\x00\x02\x05z\x00\x00\x05\xdc\x00\x00\x00\x0c\x00\x02\x05|\x00\x00\x00\t\x00\x00\x00\x1f\x00\x01'
TLV l=97       t=TLV_TYPE_NETWORK_INTERFACE v=b'\x00\x00\x00\x14\x00\x01\x05\x98veth53ece9a\x00\x00\x00\x00\x0c\x00\x02\x05z\x00\x00\x05\xdc\x00\x00\x00\x0c\x00\x02\x05|\x00\x00\x00\x07\x00\x00\x00\x1f\x00\x01'
TLV l=97       t=TLV_TYPE_NETWORK_INTERFACE v=b'\x00\x00\x00\x14\x00\x01\x05\x98veth9796d4c\x00\x00\x00\x00\x0c\x00\x02\x05z\x00\x00\x05\xdc\x00\x00\x00\x0c\x00\x02\x05|\x00\x00\x00\x13\x00\x00\x00\x1f\x00\x01'
TLV l=176      t=TLV_TYPE_NETWORK_INTERFACE v=b'\x00\x00\x00\x0f\x00\x01\x05\x98enp0s3\x00\x00\x00\x00\x0c\x00\x02\x05z\x00\x00\x05\xdc\x00\x00\x00\x0c\x00\x02\x05|\x00\x00\x00\x02\x00\x00\x00\x1f\x00\x01\x05{UP,'
TLV l=97       t=TLV_TYPE_NETWORK_INTERFACE v=b'\x00\x00\x00\x14\x00\x01\x05\x98veth1f43292\x00\x00\x00\x00\x0c\x00\x02\x05z\x00\x00\x05\xdc\x00\x00\x00\x0c\x00\x02\x05|\x00\x00\x00\x15\x00\x00\x00\x1f\x00\x01'
TLV l=97       t=TLV_TYPE_NETWORK_INTERFACE v=b'\x00\x00\x00\x14\x00\x01\x05\x98veth79418a3\x00\x00\x00\x00\x0c\x00\x02\x05z\x00\x00\x05\xdc\x00\x00\x00\x0c\x00\x02\x05|\x00\x00\x00\x0f\x00\x00\x00\x1f\x00\x01'
TLV l=149      t=TLV_TYPE_NETWORK_INTERFACE v=b'\x00\x00\x00\x0b\x00\x01\x05\x98lo\x00\x00\x00\x00\x0c\x00\x02\x05z\x00\x01\x00\x00\x00\x00\x00\x0c\x00\x02\x05|\x00\x00\x00\x01\x00\x00\x00\x14\x00\x01\x05{UP,LOOP'
TLV l=97       t=TLV_TYPE_NETWORK_INTERFACE v=b'\x00\x00\x00\x14\x00\x01\x05\x98vetha48ba11\x00\x00\x00\x00\x0c\x00\x02\x05z\x00\x00\x05\xdc\x00\x00\x00\x0c\x00\x02\x05|\x00\x00\x00\x1b\x00\x00\x00\x1f\x00\x01'
TLV l=185      t=TLV_TYPE_NETWORK_INTERFACE v=b'\x00\x00\x00\x18\x00\x01\x05\x98br-529aae40c248\x00\x00\x00\x00\x0c\x00\x02\x05z\x00\x00\x05\xdc\x00\x00\x00\x0c\x00\x02\x05|\x00\x00\x00\x04\x00\x00'
TLV l=97       t=TLV_TYPE_NETWORK_INTERFACE v=b'\x00\x00\x00\x14\x00\x01\x05\x98veth999bc2f\x00\x00\x00\x00\x0c\x00\x02\x05z\x00\x00\x05\xdc\x00\x00\x00\x0c\x00\x02\x05|\x00\x00\x00\x0b\x00\x00\x00\x1f\x00\x01'
TLV l=97       t=TLV_TYPE_NETWORK_INTERFACE v=b'\x00\x00\x00\x14\x00\x01\x05\x98veth3867a3e\x00\x00\x00\x00\x0c\x00\x02\x05z\x00\x00\x05\xdc\x00\x00\x00\x0c\x00\x02\x05|\x00\x00\x00\x19\x00\x00\x00\x1f\x00\x01'
TLV l=97       t=TLV_TYPE_NETWORK_INTERFACE v=b'\x00\x00\x00\x14\x00\x01\x05\x98veth4c90bbd\x00\x00\x00\x00\x0c\x00\x02\x05z\x00\x00\x05\xdc\x00\x00\x00\x0c\x00\x02\x05|\x00\x00\x00\x11\x00\x00\x00\x1f\x00\x01'
TLV l=97       t=TLV_TYPE_NETWORK_INTERFACE v=b'\x00\x00\x00\x14\x00\x01\x05\x98veth71b45e2\x00\x00\x00\x00\x0c\x00\x02\x05z\x00\x00\x05\xdc\x00\x00\x00\x0c\x00\x02\x05|\x00\x00\x00\x17\x00\x00\x00\x1f\x00\x01'
TLV l=97       t=TLV_TYPE_NETWORK_INTERFACE v=b'\x00\x00\x00\x14\x00\x01\x05\x98veth5305721\x00\x00\x00\x00\x0c\x00\x02\x05z\x00\x00\x05\xdc\x00\x00\x00\x0c\x00\x02\x05|\x00\x00\x00\r\x00\x00\x00\x1f\x00\x01'
TLV l=117      t=TLV_TYPE_NETWORK_INTERFACE v=b'\x00\x00\x00\x10\x00\x01\x05\x98docker0\x00\x00\x00\x00\x0c\x00\x02\x05z\x00\x00\x05\xdc\x00\x00\x00\x0c\x00\x02\x05|\x00\x00\x00\x03\x00\x00\x00\x1f\x00\x01\x05{UP'
Packet: type=Req  len=88       enc=AES256 sess=6b2f41af-eb74-454f-9606-77b703dab297
TLV l=12       t=TLV_TYPE_COMMAND_ID        v=STDAPI_NET_CONFIG_GET_ROUTES
TLV l=41       t=TLV_TYPE_REQUEST_ID        v=b'32672646185163882849138308575570\x00'
Packet: type=Resp len=424      enc=AES256 sess=6b2f41af-eb74-454f-9606-77b703dab297
TLV l=24       t=TLV_TYPE_UUID              v=b'\xd2\x99\x93k\xe4W`\x99f `"\x04\x0fx\xaa'
TLV l=12       t=TLV_TYPE_COMMAND_ID        v=STDAPI_NET_CONFIG_GET_ROUTES
TLV l=41       t=TLV_TYPE_REQUEST_ID        v=b'32672646185163882849138308575570\x00'
TLV l=12       t=TLV_TYPE_RESULT            v=b'\x00\x00\x00\x00'
TLV l=71       t=TLV_TYPE_NETWORK_ROUTE     v=b'\x00\x00\x00\x0c\x00\x04\x05\x8c\n\n\r\x00\x00\x00\x00\x0c\x00\x04\x05\x8d\xff\xff\xff\x00\x00\x00\x00\x0c\x00\x04\x05\x8e\x00\x00\x00\x00\x00\x00\x00\x0c\x00\x02\x05\xa3\x00\x00\x00\x00\x00\x00'
TLV l=72       t=TLV_TYPE_NETWORK_ROUTE     v=b'\x00\x00\x00\x0c\x00\x04\x05\x8c\xac\x11\x00\x00\x00\x00\x00\x0c\x00\x04\x05\x8d\xff\xff\x00\x00\x00\x00\x00\x0c\x00\x04\x05\x8e\x00\x00\x00\x00\x00\x00\x00\x0c\x00\x02\x05\xa3\x00\x00\x00\x00\x00\x00'
TLV l=80       t=TLV_TYPE_NETWORK_ROUTE     v=b'\x00\x00\x00\x0c\x00\x04\x05\x8c\xac\x12\x00\x00\x00\x00\x00\x0c\x00\x04\x05\x8d\xff\xff\x00\x00\x00\x00\x00\x0c\x00\x04\x05\x8e\x00\x00\x00\x00\x00\x00\x00\x0c\x00\x02\x05\xa3\x00\x00\x00\x00\x00\x00'
TLV l=80       t=TLV_TYPE_NETWORK_ROUTE     v=b'\x00\x00\x00\x0c\x00\x04\x05\x8c\xac\x13\x00\x00\x00\x00\x00\x0c\x00\x04\x05\x8d\xff\xff\x00\x00\x00\x00\x00\x0c\x00\x04\x05\x8e\x00\x00\x00\x00\x00\x00\x00\x0c\x00\x02\x05\xa3\x00\x00\x00\x00\x00\x00'
Packet: type=Req  len=88       enc=AES256 sess=6b2f41af-eb74-454f-9606-77b703dab297
TLV l=12       t=TLV_TYPE_COMMAND_ID        v=STDAPI_FS_GETWD
TLV l=41       t=TLV_TYPE_REQUEST_ID        v=b'04142291458741332534681847985042\x00'
Packet: type=Resp len=136      enc=AES256 sess=6b2f41af-eb74-454f-9606-77b703dab297
TLV l=24       t=TLV_TYPE_UUID              v=b'\xd2\x99\x93k\xe4W`\x99f `"\x04\x0fx\xaa'
TLV l=12       t=TLV_TYPE_COMMAND_ID        v=STDAPI_FS_GETWD
TLV l=41       t=TLV_TYPE_REQUEST_ID        v=b'04142291458741332534681847985042\x00'
TLV l=12       t=TLV_TYPE_RESULT            v=b'\x00\x00\x00\x00'
TLV l=17       t=TLV_TYPE_DIRECTORY_PATH    v=b'/dev/shm\x00'
Packet: type=Req  len=104      enc=AES256 sess=6b2f41af-eb74-454f-9606-77b703dab297
TLV l=12       t=TLV_TYPE_COMMAND_ID        v=STDAPI_FS_STAT
TLV l=41       t=TLV_TYPE_REQUEST_ID        v=b'52015397302882071837456953377709\x00'
TLV l=17       t=TLV_TYPE_FILE_PATH         v=b'/dev/shm\x00'
Packet: type=Resp len=200      enc=AES256 sess=6b2f41af-eb74-454f-9606-77b703dab297
TLV l=24       t=TLV_TYPE_UUID              v=b'\xd2\x99\x93k\xe4W`\x99f `"\x04\x0fx\xaa'
TLV l=12       t=TLV_TYPE_COMMAND_ID        v=STDAPI_FS_STAT
TLV l=41       t=TLV_TYPE_REQUEST_ID        v=b'52015397302882071837456953377709\x00'
TLV l=12       t=TLV_TYPE_RESULT            v=b'\x00\x00\x00\x00'
TLV l=72       t=TLV_TYPE_STAT_BUF          v=b"\x1a\x00\x00\x00\xffC\x00\x00\x03\x00\x00\x00\x00\x00\x00\x00\x00\x00\x00\x00\x00\x00\x00\x00\x02\x00\x00\x00\x00\x00\x00\x00P\x00\x00\x00\x00\x00\x00\x00n'/b\x00\x00\x00\x00j'"
Packet: type=Req  len=104      enc=AES256 sess=6b2f41af-eb74-454f-9606-77b703dab297
TLV l=12       t=TLV_TYPE_COMMAND_ID        v=STDAPI_FS_LS
TLV l=41       t=TLV_TYPE_REQUEST_ID        v=b'20050676170239424614686344865879\x00'
TLV l=17       t=TLV_TYPE_DIRECTORY_PATH    v=b'/dev/shm\x00'
Packet: type=Resp len=360      enc=AES256 sess=6b2f41af-eb74-454f-9606-77b703dab297
TLV l=24       t=TLV_TYPE_UUID              v=b'\xd2\x99\x93k\xe4W`\x99f `"\x04\x0fx\xaa'
TLV l=12       t=TLV_TYPE_COMMAND_ID        v=STDAPI_FS_LS
TLV l=41       t=TLV_TYPE_REQUEST_ID        v=b'20050676170239424614686344865879\x00'
TLV l=12       t=TLV_TYPE_RESULT            v=b'\x00\x00\x00\x00'
TLV l=20       t=TLV_TYPE_FILE_NAME         v=b'auto_update\x00'
TLV l=29       t=TLV_TYPE_FILE_PATH         v=b'/dev/shm/auto_update\x00'
TLV l=72       t=TLV_TYPE_STAT_BUF          v=b"\x1a\x00\x00\x00\xed\x81\x00\x00\x01\x00\x00\x00\x00\x00\x00\x00\x00\x00\x00\x00\x00\x00\x00\x00\x06\x00\x00\x00\x00\x00\x00\x00\x98\xc0\x0f\x00\x00\x00\x00\x00o'/b\x00\x00\x00\x00\x8a\x1e"
TLV l=18       t=TLV_TYPE_FILE_NAME         v=b'multipath\x00'
TLV l=27       t=TLV_TYPE_FILE_PATH         v=b'/dev/shm/multipath\x00'
TLV l=72       t=TLV_TYPE_STAT_BUF          v=b'\x1a\x00\x00\x00\xc0A\x00\x00\x04\x00\x00\x00\x00\x00\x00\x00\x00\x00\x00\x00\x00\x00\x00\x00\x03\x00\x00\x00\x00\x00\x00\x00P\x00\x00\x00\x00\x00\x00\x00\xc3&/b\x00\x00\x00\x00\xc3&'
Packet: type=Req  len=88       enc=AES256 sess=6b2f41af-eb74-454f-9606-77b703dab297
TLV l=12       t=TLV_TYPE_COMMAND_ID        v=STDAPI_FS_GETWD
TLV l=41       t=TLV_TYPE_REQUEST_ID        v=b'95610365909032257423641462411637\x00'
Packet: type=Resp len=136      enc=AES256 sess=6b2f41af-eb74-454f-9606-77b703dab297
TLV l=24       t=TLV_TYPE_UUID              v=b'\xd2\x99\x93k\xe4W`\x99f `"\x04\x0fx\xaa'
TLV l=12       t=TLV_TYPE_COMMAND_ID        v=STDAPI_FS_GETWD
TLV l=41       t=TLV_TYPE_REQUEST_ID        v=b'95610365909032257423641462411637\x00'
TLV l=12       t=TLV_TYPE_RESULT            v=b'\x00\x00\x00\x00'
TLV l=17       t=TLV_TYPE_DIRECTORY_PATH    v=b'/dev/shm\x00'
Packet: type=Req  len=104      enc=AES256 sess=6b2f41af-eb74-454f-9606-77b703dab297
TLV l=12       t=TLV_TYPE_COMMAND_ID        v=STDAPI_FS_STAT
TLV l=41       t=TLV_TYPE_REQUEST_ID        v=b'77915503777452779089074936988648\x00'
TLV l=15       t=TLV_TYPE_FILE_PATH         v=b'/root/\x00'
Packet: type=Resp len=200      enc=AES256 sess=6b2f41af-eb74-454f-9606-77b703dab297
TLV l=24       t=TLV_TYPE_UUID              v=b'\xd2\x99\x93k\xe4W`\x99f `"\x04\x0fx\xaa'
TLV l=12       t=TLV_TYPE_COMMAND_ID        v=STDAPI_FS_STAT
TLV l=41       t=TLV_TYPE_REQUEST_ID        v=b'77915503777452779089074936988648\x00'
TLV l=12       t=TLV_TYPE_RESULT            v=b'\x00\x00\x00\x00'
TLV l=72       t=TLV_TYPE_STAT_BUF          v=b'\x00\xfd\x00\x00\xc0A\x00\x00\x07\x00\x00\x00\x00\x00\x00\x00\x00\x00\x00\x00\x00\x00\x00\x00\x04\x00\x02\x00\x00\x00\x00\x00\x00\x10\x00\x00\x00\x00\x00\x00q&/b\x00\x00\x00\x00\x96&'
Packet: type=Req  len=104      enc=AES256 sess=6b2f41af-eb74-454f-9606-77b703dab297
TLV l=12       t=TLV_TYPE_COMMAND_ID        v=STDAPI_FS_LS
TLV l=41       t=TLV_TYPE_REQUEST_ID        v=b'59046124425676635184554842332544\x00'
TLV l=15       t=TLV_TYPE_DIRECTORY_PATH    v=b'/root/\x00'
Packet: type=Resp len=1352     enc=AES256 sess=6b2f41af-eb74-454f-9606-77b703dab297
TLV l=24       t=TLV_TYPE_UUID              v=b'\xd2\x99\x93k\xe4W`\x99f `"\x04\x0fx\xaa'
TLV l=12       t=TLV_TYPE_COMMAND_ID        v=STDAPI_FS_LS
TLV l=41       t=TLV_TYPE_REQUEST_ID        v=b'59046124425676635184554842332544\x00'
TLV l=12       t=TLV_TYPE_RESULT            v=b'\x00\x00\x00\x00'
TLV l=17       t=TLV_TYPE_FILE_NAME         v=b'.profile\x00'
TLV l=24       t=TLV_TYPE_FILE_PATH         v=b'/root//.profile\x00'
TLV l=72       t=TLV_TYPE_STAT_BUF          v=b'\x00\xfd\x00\x00\xa4\x81\x00\x00\x01\x00\x00\x00\x00\x00\x00\x00\x00\x00\x00\x00\x00\x00\x00\x00\x06\x00\x02\x00\x00\x00\x00\x00\xa1\x00\x00\x00\x00\x00\x00\x00\xcc\x01/b\x00\x00\x00\x00\x99\x16'
TLV l=17       t=TLV_TYPE_FILE_NAME         v=b'.viminfo\x00'
TLV l=24       t=TLV_TYPE_FILE_PATH         v=b'/root//.viminfo\x00'
TLV l=72       t=TLV_TYPE_STAT_BUF          v=b'\x00\xfd\x00\x00\x80\x81\x00\x00\x01\x00\x00\x00\x00\x00\x00\x00\x00\x00\x00\x00\x00\x00\x00\x00\xe1d\x02\x00\x00\x00\x00\x00\xa12\x00\x00\x00\x00\x00\x00\x96&/b\x00\x00\x00\x00\x96&'
TLV l=16       t=TLV_TYPE_FILE_NAME         v=b'.bashrc\x00'
TLV l=23       t=TLV_TYPE_FILE_PATH         v=b'/root//.bashrc\x00'
TLV l=72       t=TLV_TYPE_STAT_BUF          v=b'\x00\xfd\x00\x00\xa4\x81\x00\x00\x01\x00\x00\x00\x00\x00\x00\x00\x00\x00\x00\x00\x00\x00\x00\x00\x05\x00\x02\x00\x00\x00\x00\x00"\x0c\x00\x00\x00\x00\x00\x00\xcd\x01/b\x00\x00\x00\x00\x99\x16'
TLV l=13       t=TLV_TYPE_FILE_NAME         v=b'snap\x00'
TLV l=20       t=TLV_TYPE_FILE_PATH         v=b'/root//snap\x00'
TLV l=72       t=TLV_TYPE_STAT_BUF          v=b'\x00\xfd\x00\x00\xc0A\x00\x00\x03\x00\x00\x00\x00\x00\x00\x00\x00\x00\x00\x00\x00\x00\x00\x00k@\x04\x00\x00\x00\x00\x00\x00\x10\x00\x00\x00\x00\x00\x00w\x1c/b\x00\x00\x00\x00\xee\xaf'
TLV l=15       t=TLV_TYPE_FILE_NAME         v=b'.cache\x00'
TLV l=22       t=TLV_TYPE_FILE_PATH         v=b'/root//.cache\x00'
TLV l=72       t=TLV_TYPE_STAT_BUF          v=b'\x00\xfd\x00\x00\xc0A\x00\x00\x02\x00\x00\x00\x00\x00\x00\x00\x00\x00\x00\x00\x00\x00\x00\x00z\x12\x04\x00\x00\x00\x00\x00\x00\x10\x00\x00\x00\x00\x00\x00*\xb2!b\x00\x00\x00\x00*\xb2'
TLV l=24       t=TLV_TYPE_FILE_NAME         v=b'docs_backup.zip\x00'
TLV l=31       t=TLV_TYPE_FILE_PATH         v=b'/root//docs_backup.zip\x00'
TLV l=72       t=TLV_TYPE_STAT_BUF          v=b'\x00\xfd\x00\x00\x80\x81\x00\x00\x01\x00\x00\x00\x00\x00\x00\x00\x00\x00\x00\x00\x00\x00\x00\x00f\x11\x01\x00\x00\x00\x00\x00\xaar\x13\x00\x00\x00\x00\x00\x9f\x0f/b\x00\x00\x00\x00S\x0e'
TLV l=13       t=TLV_TYPE_FILE_NAME         v=b'.ssh\x00'
TLV l=20       t=TLV_TYPE_FILE_PATH         v=b'/root//.ssh\x00'
TLV l=72       t=TLV_TYPE_STAT_BUF          v=b'\x00\xfd\x00\x00\xc0A\x00\x00\x02\x00\x00\x00\x00\x00\x00\x00\x00\x00\x00\x00\x00\x00\x00\x00b@\x04\x00\x00\x00\x00\x00\x00\x10\x00\x00\x00\x00\x00\x00G\x02/b\x00\x00\x00\x00F\x02'
TLV l=17       t=TLV_TYPE_FILE_NAME         v=b'root.txt\x00'
TLV l=24       t=TLV_TYPE_FILE_PATH         v=b'/root//root.txt\x00'
TLV l=72       t=TLV_TYPE_STAT_BUF          v=b'\x00\xfd\x00\x00\x00\x81\x00\x00\x01\x00\x00\x00\x00\x00\x00\x00\x00\x00\x00\x00\x00\x00\x00\x00\xda\xa3\x02\x00\x00\x00\x00\x00 \x00\x00\x00\x00\x00\x00\x00k\xc5!b\x00\x00\x00\x00F\xcd'
TLV l=22       t=TLV_TYPE_FILE_NAME         v=b'.bash_history\x00'
TLV l=29       t=TLV_TYPE_FILE_PATH         v=b'/root//.bash_history\x00'
TLV l=72       t=TLV_TYPE_STAT_BUF          v=b'\x06\x00\x00\x00\xb6!\x00\x00\x01\x00\x00\x00\x00\x00\x00\x00\x00\x00\x00\x00\x03\x01\x00\x00\x06\x00\x00\x00\x00\x00\x00\x00\x00\x00\x00\x00\x00\x00\x00\x00\xc3&/b\x00\x00\x00\x00\xc3&'
TLV l=13       t=TLV_TYPE_FILE_NAME         v=b'ldap\x00'
TLV l=20       t=TLV_TYPE_FILE_PATH         v=b'/root//ldap\x00'
TLV l=72       t=TLV_TYPE_STAT_BUF          v=b'\x00\xfd\x00\x00\xedA\x00\x00\x02\x00\x00\x00\x00\x00\x00\x00\x00\x00\x00\x00\x00\x00\x00\x00\xd5\xa3\x02\x00\x00\x00\x00\x00\x00\x10\x00\x00\x00\x00\x00\x00\xe5\x0e/b\x00\x00\x00\x00\xe4\x0e'
TLV l=15       t=TLV_TYPE_FILE_NAME         v=b'docker\x00'
TLV l=22       t=TLV_TYPE_FILE_PATH         v=b'/root//docker\x00'
TLV l=72       t=TLV_TYPE_STAT_BUF          v=b'\x00\xfd\x00\x00\xedA\x00\x00\n\x00\x00\x00\x00\x00\x00\x00\x00\x00\x00\x00\x00\x00\x00\x00\x98@\x04\x00\x00\x00\x00\x00\x00\x10\x00\x00\x00\x00\x00\x001\x14/b\x00\x00\x00\x00"\xb9'
Packet: type=Req  len=120      enc=AES256 sess=6b2f41af-eb74-454f-9606-77b703dab297
TLV l=12       t=TLV_TYPE_COMMAND_ID        v=STDAPI_FS_STAT
TLV l=41       t=TLV_TYPE_REQUEST_ID        v=b'05055227910166711903057480842194\x00'
TLV l=30       t=TLV_TYPE_FILE_PATH         v=b'/root/docs_backup.zip\x00'
Packet: type=Resp len=200      enc=AES256 sess=6b2f41af-eb74-454f-9606-77b703dab297
TLV l=24       t=TLV_TYPE_UUID              v=b'\xd2\x99\x93k\xe4W`\x99f `"\x04\x0fx\xaa'
TLV l=12       t=TLV_TYPE_COMMAND_ID        v=STDAPI_FS_STAT
TLV l=41       t=TLV_TYPE_REQUEST_ID        v=b'05055227910166711903057480842194\x00'
TLV l=12       t=TLV_TYPE_RESULT            v=b'\x00\x00\x00\x00'
TLV l=72       t=TLV_TYPE_STAT_BUF          v=b'\x00\xfd\x00\x00\x80\x81\x00\x00\x01\x00\x00\x00\x00\x00\x00\x00\x00\x00\x00\x00\x00\x00\x00\x00f\x11\x01\x00\x00\x00\x00\x00\xaar\x13\x00\x00\x00\x00\x00\x9f\x0f/b\x00\x00\x00\x00S\x0e'
Packet: type=Req  len=168      enc=AES256 sess=6b2f41af-eb74-454f-9606-77b703dab297
TLV l=12       t=TLV_TYPE_COMMAND_ID        v=CORE_CHANNEL_OPEN
TLV l=41       t=TLV_TYPE_REQUEST_ID        v=b'17111160944068913322173533135838\x00'
TLV l=23       t=TLV_TYPE_CHANNEL_TYPE      v=b'stdapi_fs_file\x00'
TLV l=12       t=TLV_TYPE_CHANNEL_CLASS     v=b'\x00\x00\x00\x03'
TLV l=12       t=TLV_TYPE_FLAGS             v=b'\x00\x00\x00\x01'
TLV l=30       t=TLV_TYPE_FILE_PATH         v=b'/root/docs_backup.zip\x00'
TLV l=12       t=TLV_TYPE_FILE_MODE         v=b'rbb\x00'
Packet: type=Resp len=136      enc=AES256 sess=6b2f41af-eb74-454f-9606-77b703dab297
TLV l=24       t=TLV_TYPE_UUID              v=b'\xd2\x99\x93k\xe4W`\x99f `"\x04\x0fx\xaa'
TLV l=12       t=TLV_TYPE_COMMAND_ID        v=CORE_CHANNEL_OPEN
TLV l=12       t=TLV_TYPE_CHANNEL_ID        v=b'\x00\x00\x00\x01'
TLV l=41       t=TLV_TYPE_REQUEST_ID        v=b'17111160944068913322173533135838\x00'
TLV l=12       t=TLV_TYPE_RESULT            v=b'\x00\x00\x00\x00'
Packet: type=Req  len=120      enc=AES256 sess=6b2f41af-eb74-454f-9606-77b703dab297
TLV l=12       t=TLV_TYPE_COMMAND_ID        v=STDAPI_FS_STAT
TLV l=41       t=TLV_TYPE_REQUEST_ID        v=b'62961146107606897437321841618745\x00'
TLV l=30       t=TLV_TYPE_FILE_PATH         v=b'/root/docs_backup.zip\x00'
Packet: type=Resp len=200      enc=AES256 sess=6b2f41af-eb74-454f-9606-77b703dab297
TLV l=24       t=TLV_TYPE_UUID              v=b'\xd2\x99\x93k\xe4W`\x99f `"\x04\x0fx\xaa'
TLV l=12       t=TLV_TYPE_COMMAND_ID        v=STDAPI_FS_STAT
TLV l=41       t=TLV_TYPE_REQUEST_ID        v=b'62961146107606897437321841618745\x00'
TLV l=12       t=TLV_TYPE_RESULT            v=b'\x00\x00\x00\x00'
TLV l=72       t=TLV_TYPE_STAT_BUF          v=b'\x00\xfd\x00\x00\x80\x81\x00\x00\x01\x00\x00\x00\x00\x00\x00\x00\x00\x00\x00\x00\x00\x00\x00\x00f\x11\x01\x00\x00\x00\x00\x00\xaar\x13\x00\x00\x00\x00\x00\x9f\x0f/b\x00\x00\x00\x00S\x0e'
Packet: type=Req  len=104      enc=AES256 sess=6b2f41af-eb74-454f-9606-77b703dab297
TLV l=12       t=TLV_TYPE_COMMAND_ID        v=CORE_CHANNEL_READ
TLV l=41       t=TLV_TYPE_REQUEST_ID        v=b'81583094782444646844363494472485\x00'
TLV l=12       t=TLV_TYPE_CHANNEL_ID        v=b'\x00\x00\x00\x01'
TLV l=12       t=TLV_TYPE_LENGTH            v=b'\x00\x10\x00\x00'
Packet: type=Resp len=1048712  enc=AES256 sess=6b2f41af-eb74-454f-9606-77b703dab297
TLV l=24       t=TLV_TYPE_UUID              v=b'\xd2\x99\x93k\xe4W`\x99f `"\x04\x0fx\xaa'
TLV l=12       t=TLV_TYPE_COMMAND_ID        v=CORE_CHANNEL_READ
TLV l=12       t=TLV_TYPE_CHANNEL_ID        v=b'\x00\x00\x00\x01'
TLV l=41       t=TLV_TYPE_REQUEST_ID        v=b'81583094782444646844363494472485\x00'
TLV l=12       t=TLV_TYPE_RESULT            v=b'\x00\x00\x00\x00'
TLV l=1048584  t=TLV_TYPE_CHANNEL_DATA      v=b'PK\x03\x04\n\x00\x00\x00\x00\x00\xb4TnT\x00\x00\x00\x00\x00\x00\x00\x00\x00\x00\x00\x00\n\x00\x1c\x00Documents/UT\t\x00\x03\xe3\x0c/b\\'
Packet: type=Req  len=104      enc=AES256 sess=6b2f41af-eb74-454f-9606-77b703dab297
TLV l=12       t=TLV_TYPE_COMMAND_ID        v=CORE_CHANNEL_READ
TLV l=41       t=TLV_TYPE_REQUEST_ID        v=b'48857921355208983185187224372436\x00'
TLV l=12       t=TLV_TYPE_CHANNEL_ID        v=b'\x00\x00\x00\x01'
TLV l=12       t=TLV_TYPE_LENGTH            v=b'\x00\x10\x00\x00'
Packet: type=Resp len=226104   enc=AES256 sess=6b2f41af-eb74-454f-9606-77b703dab297
TLV l=24       t=TLV_TYPE_UUID              v=b'\xd2\x99\x93k\xe4W`\x99f `"\x04\x0fx\xaa'
TLV l=12       t=TLV_TYPE_COMMAND_ID        v=CORE_CHANNEL_READ
TLV l=12       t=TLV_TYPE_CHANNEL_ID        v=b'\x00\x00\x00\x01'
TLV l=41       t=TLV_TYPE_REQUEST_ID        v=b'48857921355208983185187224372436\x00'
TLV l=12       t=TLV_TYPE_RESULT            v=b'\x00\x00\x00\x00'
TLV l=225970   t=TLV_TYPE_CHANNEL_DATA      v=b'\xfa\x8a"\x15\xb3[BS\x04~\x15VV\x80\xbc!\xb7)Q<\xce\xe5\xc0y1\x19U\xbe\x94\xd4\x1e\xd6\xd0D\x12\xb5S\xe3\xa6"a@\xfaXO\x9a\xb2V\xf4\xce'
Packet: type=Req  len=104      enc=AES256 sess=6b2f41af-eb74-454f-9606-77b703dab297
TLV l=12       t=TLV_TYPE_COMMAND_ID        v=CORE_CHANNEL_READ
TLV l=41       t=TLV_TYPE_REQUEST_ID        v=b'71560517686021057956178610979680\x00'
TLV l=12       t=TLV_TYPE_CHANNEL_ID        v=b'\x00\x00\x00\x01'
TLV l=12       t=TLV_TYPE_LENGTH            v=b'\x00\x10\x00\x00'
Packet: type=Resp len=136      enc=AES256 sess=6b2f41af-eb74-454f-9606-77b703dab297
TLV l=24       t=TLV_TYPE_UUID              v=b'\xd2\x99\x93k\xe4W`\x99f `"\x04\x0fx\xaa'
TLV l=12       t=TLV_TYPE_COMMAND_ID        v=CORE_CHANNEL_READ
TLV l=12       t=TLV_TYPE_CHANNEL_ID        v=b'\x00\x00\x00\x01'
TLV l=41       t=TLV_TYPE_REQUEST_ID        v=b'71560517686021057956178610979680\x00'
TLV l=12       t=TLV_TYPE_RESULT            v=b'\x00\x00\x00\x00'
TLV l=8        t=TLV_TYPE_CHANNEL_DATA      v=b''
Packet: type=Req  len=104      enc=AES256 sess=6b2f41af-eb74-454f-9606-77b703dab297
TLV l=12       t=TLV_TYPE_COMMAND_ID        v=CORE_CHANNEL_EOF
TLV l=41       t=TLV_TYPE_REQUEST_ID        v=b'93919453359420555438266301105878\x00'
TLV l=12       t=TLV_TYPE_CHANNEL_ID        v=b'\x00\x00\x00\x01'
Packet: type=Resp len=136      enc=AES256 sess=6b2f41af-eb74-454f-9606-77b703dab297
TLV l=24       t=TLV_TYPE_UUID              v=b'\xd2\x99\x93k\xe4W`\x99f `"\x04\x0fx\xaa'
TLV l=12       t=TLV_TYPE_COMMAND_ID        v=CORE_CHANNEL_EOF
TLV l=12       t=TLV_TYPE_CHANNEL_ID        v=b'\x00\x00\x00\x01'
TLV l=41       t=TLV_TYPE_REQUEST_ID        v=b'93919453359420555438266301105878\x00'
TLV l=12       t=TLV_TYPE_RESULT            v=b'\x00\x00\x00\x00'
TLV l=9        t=TLV_TYPE_BOOL              v=b'\x01'
Packet: type=Req  len=104      enc=AES256 sess=6b2f41af-eb74-454f-9606-77b703dab297
TLV l=12       t=TLV_TYPE_COMMAND_ID        v=CORE_CHANNEL_CLOSE
TLV l=41       t=TLV_TYPE_REQUEST_ID        v=b'97805314857073401324986796858778\x00'
TLV l=12       t=TLV_TYPE_CHANNEL_ID        v=b'\x00\x00\x00\x01'
Packet: type=Resp len=136      enc=AES256 sess=6b2f41af-eb74-454f-9606-77b703dab297
TLV l=24       t=TLV_TYPE_UUID              v=b'\xd2\x99\x93k\xe4W`\x99f `"\x04\x0fx\xaa'
TLV l=12       t=TLV_TYPE_COMMAND_ID        v=CORE_CHANNEL_CLOSE
TLV l=12       t=TLV_TYPE_CHANNEL_ID        v=b'\x00\x00\x00\x01'
TLV l=41       t=TLV_TYPE_REQUEST_ID        v=b'97805314857073401324986796858778\x00'
TLV l=12       t=TLV_TYPE_RESULT            v=b'\x00\x00\x00\x00'
